transcript
# Compile of ALU.v was successful.
# Compile of ALUController.v was successful.
# Compile of ControlUnit.v was successful.
# Compile of DataPath.v was successful.
# Compile of Extend.v was successful.
# Compile of MainController.v was successful.
# Compile of Memory.v was successful.
# Compile of MUX2to1.v was successful.
# Compile of MUX3to1.v was successful.
# Compile of Processor.v was successful.
# Compile of Register.v was successful.
# Compile of RegisterFile.v was successful.
# Compile of SystemTop.v was successful.
# Compile of tb_SystemTop.v was successful.
# Compile of Temp.v was successful.
# 15 compiles, 0 failed with no errors.
vsim -gui work.tb_SystemTop
# vsim -gui work.tb_SystemTop 
# Start time: 11:21:30 on Jan 07,2026
# Loading work.tb_SystemTop
# Loading work.System_Top
# Loading work.Processor
# Loading work.control_unit
# Loading work.main_control
# Loading work.alu_control
# Loading work.Datapath
# Loading work.Register
# Loading work.Mux2to1
# Loading work.RegisterFile
# Loading work.extend
# Loading work.Mux3to1
# Loading work.ALU
# Loading work.memory
# ** Warning: (vsim-2685) [TFMPC] - Too few port connections for 'MC'.  Expected 16, found 15.
#    Time: 0 ps  Iteration: 0  Instance: /tb_SystemTop/uut/CPU/CU/MC File: C:/Users/ASUS/Desktop/uniVersity/Semester5/CA/CA/CA3/CA3/Temp.v Line: 463
# ** Warning: (vsim-3722) C:/Users/ASUS/Desktop/uniVersity/Semester5/CA/CA/CA3/CA3/Temp.v(463): [TFMPC] - Missing connection for port 'immsrc'.
add wave -position insertpoint  \
sim:/tb_SystemTop/clk \
sim:/tb_SystemTop/rst \
sim:/tb_SystemTop/i \
sim:/tb_SystemTop/prev_state \
sim:/tb_SystemTop/prev_pc \
sim:/tb_SystemTop/r0_value \
sim:/tb_SystemTop/r1_value \
sim:/tb_SystemTop/r2_value \
sim:/tb_SystemTop/r3_value \
sim:/tb_SystemTop/r4_value \
sim:/tb_SystemTop/r5_value \
sim:/tb_SystemTop/r6_value \
sim:/tb_SystemTop/r7_value \
sim:/tb_SystemTop/current_state \
sim:/tb_SystemTop/pc_value \
sim:/tb_SystemTop/instruction \
sim:/tb_SystemTop/alu_result_val \
sim:/tb_SystemTop/result_bus \
sim:/tb_SystemTop/accumulator_reg
run -all
# 5000: MC STATE change x -> 0
# [CTRL] 5000 opcode=0000 regwrite=0 regdest=0 alusrca=0 alusrcb=01 aluop=zz pwrite=0 iwrite=1
# 5000: PC=0000 IR=0000
# 5000: ADR=0000 MDR=0000 MEM_RD=xxxx
# [CTRL] 15000 opcode=0000 regwrite=0 regdest=0 alusrca=0 alusrcb=01 aluop=zz pwrite=0 iwrite=1
# 15000: PC=0000 IR=0000
# 15000: ADR=0000 MDR=0000 MEM_RD=xxxx
# [TB] Loading program_sum_array.hex into memory (if available)
# [TB] Initialized data array at 0x64..0x6d with values 1..10
# [CTRL] 25000 opcode=0000 regwrite=0 regdest=0 alusrca=0 alusrcb=01 aluop=zz pwrite=0 iwrite=1
# 25000: PC=0000 IR=0000
# 25000: ADR=0000 MDR=0000 MEM_RD=8401
# 35000: MC STATE change 0 -> 8
# 35000: PC update (pwrite=1) old=xxxx new=0000
# [CTRL] 35000 opcode=1000 regwrite=0 regdest=0 alusrca=0 alusrcb=00 aluop=zz pwrite=1 iwrite=0
# 35000: PC=0000 IR=8401
# 35000: ADR=0000 MDR=8401 MEM_RD=8401
# 45000: MC STATE change 8 -> 1
# [CTRL] 45000 opcode=1000 regwrite=0 regdest=0 alusrca=0 alusrcb=00 aluop=zz pwrite=0 iwrite=0
# 45000: PC=0001 IR=8401
# 45000: ADR=0001 MDR=8401 MEM_RD=0064
# 55000: MC STATE change 1 -> 2
# [CTRL] 55000 opcode=1000 regwrite=0 regdest=0 alusrca=1 alusrcb=00 aluop=zz pwrite=0 iwrite=0
# 55000: PC=0001 IR=8401
# 55000: ADR=0001 MDR=0064 MEM_RD=0064
# 65000: WB regwrite=1 regdest=1 instr[11:9]=2 result=xxxx
# 65000: MC STATE change 2 -> 5
# [CTRL] 65000 opcode=1000 regwrite=1 regdest=1 alusrca=0 alusrcb=00 aluop=zz pwrite=0 iwrite=0
# 65000: PC=0001 IR=8401
# 65000: ADR=0001 MDR=0064 MEM_RD=0064
# 75000: MC STATE change 5 -> 0
# [CTRL] 75000 opcode=1000 regwrite=0 regdest=0 alusrca=0 alusrcb=01 aluop=zz pwrite=0 iwrite=1
# 75000: PC=0001 IR=8401
# 75000: ADR=0001 MDR=0064 MEM_RD=0064
# 85000: MC STATE change 0 -> 8
# 85000: PC update (pwrite=1) old=0000 new=0001
# [CTRL] 85000 opcode=0000 regwrite=0 regdest=0 alusrca=0 alusrcb=00 aluop=zz pwrite=1 iwrite=0
# 85000: PC=0001 IR=0064
# 85000: ADR=0001 MDR=0064 MEM_RD=0064
# 95000: MC STATE change 8 -> 1
# [CTRL] 95000 opcode=0000 regwrite=0 regdest=0 alusrca=0 alusrcb=00 aluop=zz pwrite=0 iwrite=0
# 95000: PC=0002 IR=0064
# 95000: ADR=0002 MDR=0064 MEM_RD=8404
# 105000: MC STATE change 1 -> 2
# [CTRL] 105000 opcode=0000 regwrite=0 regdest=0 alusrca=1 alusrcb=10 aluop=zz pwrite=0 iwrite=0
# 105000: PC=0002 IR=0064
# 105000: ADR=0002 MDR=8404 MEM_RD=8404
# 115000: MC STATE change 2 -> 3
# [CTRL] 115000 opcode=0000 regwrite=0 regdest=0 alusrca=0 alusrcb=00 aluop=zz pwrite=0 iwrite=0
# 115000: PC=0002 IR=0064
# 115000: ADR=xxxx MDR=8404 MEM_RD=xxxx
# 125000: WB regwrite=1 regdest=1 instr[11:9]=0 result=xxxx
# 125000: MC STATE change 3 -> 5
# [CTRL] 125000 opcode=0000 regwrite=1 regdest=1 alusrca=0 alusrcb=00 aluop=zz pwrite=0 iwrite=0
# 125000: PC=0002 IR=0064
# 125000: ADR=0002 MDR=xxxx MEM_RD=8404
# 135000: MC STATE change 5 -> 0
# [CTRL] 135000 opcode=0000 regwrite=0 regdest=0 alusrca=0 alusrcb=01 aluop=zz pwrite=0 iwrite=1
# 135000: PC=0002 IR=0064
# 135000: ADR=0002 MDR=8404 MEM_RD=8404
# 145000: MC STATE change 0 -> 8
# 145000: PC update (pwrite=1) old=0001 new=0002
# [CTRL] 145000 opcode=1000 regwrite=0 regdest=0 alusrca=0 alusrcb=00 aluop=zz pwrite=1 iwrite=0
# 145000: PC=0002 IR=8404
# 145000: ADR=0002 MDR=8404 MEM_RD=8404
# 155000: MC STATE change 8 -> 1
# [CTRL] 155000 opcode=1000 regwrite=0 regdest=0 alusrca=0 alusrcb=00 aluop=zz pwrite=0 iwrite=0
# 155000: PC=0003 IR=8404
# 155000: ADR=0003 MDR=8404 MEM_RD=c000
# 165000: MC STATE change 1 -> 2
# [CTRL] 165000 opcode=1000 regwrite=0 regdest=0 alusrca=1 alusrcb=00 aluop=zz pwrite=0 iwrite=0
# 165000: PC=0003 IR=8404
# 165000: ADR=0003 MDR=c000 MEM_RD=c000
# 175000: WB regwrite=1 regdest=1 instr[11:9]=2 result=xxxx
# 175000: MC STATE change 2 -> 5
# [CTRL] 175000 opcode=1000 regwrite=1 regdest=1 alusrca=0 alusrcb=00 aluop=zz pwrite=0 iwrite=0
# 175000: PC=0003 IR=8404
# 175000: ADR=0003 MDR=c000 MEM_RD=c000
# 185000: MC STATE change 5 -> 0
# [CTRL] 185000 opcode=1000 regwrite=0 regdest=0 alusrca=0 alusrcb=01 aluop=zz pwrite=0 iwrite=1
# 185000: PC=0003 IR=8404
# 185000: ADR=0003 MDR=c000 MEM_RD=c000
# 195000: MC STATE change 0 -> 8
# 195000: PC update (pwrite=1) old=0002 new=0003
# [CTRL] 195000 opcode=1100 regwrite=0 regdest=0 alusrca=0 alusrcb=00 aluop=zz pwrite=1 iwrite=0
# 195000: PC=0003 IR=c000
# 195000: ADR=0003 MDR=c000 MEM_RD=c000
# 205000: MC STATE change 8 -> 1
# [CTRL] 205000 opcode=1100 regwrite=0 regdest=0 alusrca=0 alusrcb=00 aluop=zz pwrite=0 iwrite=0
# 205000: PC=0004 IR=c000
# 205000: ADR=0004 MDR=c000 MEM_RD=0065
# 215000: MC STATE change 1 -> 2
# [CTRL] 215000 opcode=1100 regwrite=0 regdest=0 alusrca=1 alusrcb=10 aluop=zz pwrite=0 iwrite=0
# 215000: PC=0004 IR=c000
# 215000: ADR=0004 MDR=0065 MEM_RD=0065
# 225000: WB regwrite=1 regdest=1 instr[11:9]=0 result=xxxx
# 225000: MC STATE change 2 -> 5
# [CTRL] 225000 opcode=1100 regwrite=1 regdest=1 alusrca=0 alusrcb=00 aluop=zz pwrite=0 iwrite=0
# 225000: PC=0004 IR=c000
# 225000: ADR=0004 MDR=0065 MEM_RD=0065
# 235000: MC STATE change 5 -> 0
# [CTRL] 235000 opcode=1100 regwrite=0 regdest=0 alusrca=0 alusrcb=01 aluop=zz pwrite=0 iwrite=1
# 235000: PC=0004 IR=c000
# 235000: ADR=0004 MDR=0065 MEM_RD=0065
# 245000: MC STATE change 0 -> 8
# 245000: PC update (pwrite=1) old=0003 new=0004
# [CTRL] 245000 opcode=0000 regwrite=0 regdest=0 alusrca=0 alusrcb=00 aluop=zz pwrite=1 iwrite=0
# 245000: PC=0004 IR=0065
# 245000: ADR=0004 MDR=0065 MEM_RD=0065
# 255000: MC STATE change 8 -> 1
# [CTRL] 255000 opcode=0000 regwrite=0 regdest=0 alusrca=0 alusrcb=00 aluop=zz pwrite=0 iwrite=0
# 255000: PC=0005 IR=0065
# 255000: ADR=0005 MDR=0065 MEM_RD=8404
# 265000: MC STATE change 1 -> 2
# [CTRL] 265000 opcode=0000 regwrite=0 regdest=0 alusrca=1 alusrcb=10 aluop=zz pwrite=0 iwrite=0
# 265000: PC=0005 IR=0065
# 265000: ADR=0005 MDR=8404 MEM_RD=8404
# 275000: MC STATE change 2 -> 3
# [CTRL] 275000 opcode=0000 regwrite=0 regdest=0 alusrca=0 alusrcb=00 aluop=zz pwrite=0 iwrite=0
# 275000: PC=0005 IR=0065
# 275000: ADR=xxxx MDR=8404 MEM_RD=xxxx
# 285000: WB regwrite=1 regdest=1 instr[11:9]=0 result=xxxx
# 285000: MC STATE change 3 -> 5
# [CTRL] 285000 opcode=0000 regwrite=1 regdest=1 alusrca=0 alusrcb=00 aluop=zz pwrite=0 iwrite=0
# 285000: PC=0005 IR=0065
# 285000: ADR=0005 MDR=xxxx MEM_RD=8404
# 295000: MC STATE change 5 -> 0
# [CTRL] 295000 opcode=0000 regwrite=0 regdest=0 alusrca=0 alusrcb=01 aluop=zz pwrite=0 iwrite=1
# 295000: PC=0005 IR=0065
# 295000: ADR=0005 MDR=8404 MEM_RD=8404
# 305000: MC STATE change 0 -> 8
# 305000: PC update (pwrite=1) old=0004 new=0005
# [CTRL] 305000 opcode=1000 regwrite=0 regdest=0 alusrca=0 alusrcb=00 aluop=zz pwrite=1 iwrite=0
# 305000: PC=0005 IR=8404
# 305000: ADR=0005 MDR=8404 MEM_RD=8404
# 315000: MC STATE change 8 -> 1
# [CTRL] 315000 opcode=1000 regwrite=0 regdest=0 alusrca=0 alusrcb=00 aluop=zz pwrite=0 iwrite=0
# 315000: PC=0006 IR=8404
# 315000: ADR=0006 MDR=8404 MEM_RD=c000
# 325000: MC STATE change 1 -> 2
# [CTRL] 325000 opcode=1000 regwrite=0 regdest=0 alusrca=1 alusrcb=00 aluop=zz pwrite=0 iwrite=0
# 325000: PC=0006 IR=8404
# 325000: ADR=0006 MDR=c000 MEM_RD=c000
# 335000: WB regwrite=1 regdest=1 instr[11:9]=2 result=xxxx
# 335000: MC STATE change 2 -> 5
# [CTRL] 335000 opcode=1000 regwrite=1 regdest=1 alusrca=0 alusrcb=00 aluop=zz pwrite=0 iwrite=0
# 335000: PC=0006 IR=8404
# 335000: ADR=0006 MDR=c000 MEM_RD=c000
# 345000: MC STATE change 5 -> 0
# [CTRL] 345000 opcode=1000 regwrite=0 regdest=0 alusrca=0 alusrcb=01 aluop=zz pwrite=0 iwrite=1
# 345000: PC=0006 IR=8404
# 345000: ADR=0006 MDR=c000 MEM_RD=c000
# 355000: MC STATE change 0 -> 8
# 355000: PC update (pwrite=1) old=0005 new=0006
# [CTRL] 355000 opcode=1100 regwrite=0 regdest=0 alusrca=0 alusrcb=00 aluop=zz pwrite=1 iwrite=0
# 355000: PC=0006 IR=c000
# 355000: ADR=0006 MDR=c000 MEM_RD=c000
# 365000: MC STATE change 8 -> 1
# [CTRL] 365000 opcode=1100 regwrite=0 regdest=0 alusrca=0 alusrcb=00 aluop=zz pwrite=0 iwrite=0
# 365000: PC=0007 IR=c000
# 365000: ADR=0007 MDR=c000 MEM_RD=0066
# 375000: MC STATE change 1 -> 2
# [CTRL] 375000 opcode=1100 regwrite=0 regdest=0 alusrca=1 alusrcb=10 aluop=zz pwrite=0 iwrite=0
# 375000: PC=0007 IR=c000
# 375000: ADR=0007 MDR=0066 MEM_RD=0066
# 385000: WB regwrite=1 regdest=1 instr[11:9]=0 result=xxxx
# 385000: MC STATE change 2 -> 5
# [CTRL] 385000 opcode=1100 regwrite=1 regdest=1 alusrca=0 alusrcb=00 aluop=zz pwrite=0 iwrite=0
# 385000: PC=0007 IR=c000
# 385000: ADR=0007 MDR=0066 MEM_RD=0066
# 395000: MC STATE change 5 -> 0
# [CTRL] 395000 opcode=1100 regwrite=0 regdest=0 alusrca=0 alusrcb=01 aluop=zz pwrite=0 iwrite=1
# 395000: PC=0007 IR=c000
# 395000: ADR=0007 MDR=0066 MEM_RD=0066
# 405000: MC STATE change 0 -> 8
# 405000: PC update (pwrite=1) old=0006 new=0007
# [CTRL] 405000 opcode=0000 regwrite=0 regdest=0 alusrca=0 alusrcb=00 aluop=zz pwrite=1 iwrite=0
# 405000: PC=0007 IR=0066
# 405000: ADR=0007 MDR=0066 MEM_RD=0066
# 415000: MC STATE change 8 -> 1
# [CTRL] 415000 opcode=0000 regwrite=0 regdest=0 alusrca=0 alusrcb=00 aluop=zz pwrite=0 iwrite=0
# 415000: PC=0008 IR=0066
# 415000: ADR=0008 MDR=0066 MEM_RD=8404
# 425000: MC STATE change 1 -> 2
# [CTRL] 425000 opcode=0000 regwrite=0 regdest=0 alusrca=1 alusrcb=10 aluop=zz pwrite=0 iwrite=0
# 425000: PC=0008 IR=0066
# 425000: ADR=0008 MDR=8404 MEM_RD=8404
# 435000: MC STATE change 2 -> 3
# [CTRL] 435000 opcode=0000 regwrite=0 regdest=0 alusrca=0 alusrcb=00 aluop=zz pwrite=0 iwrite=0
# 435000: PC=0008 IR=0066
# 435000: ADR=xxxx MDR=8404 MEM_RD=xxxx
# 445000: WB regwrite=1 regdest=1 instr[11:9]=0 result=xxxx
# 445000: MC STATE change 3 -> 5
# [CTRL] 445000 opcode=0000 regwrite=1 regdest=1 alusrca=0 alusrcb=00 aluop=zz pwrite=0 iwrite=0
# 445000: PC=0008 IR=0066
# 445000: ADR=0008 MDR=xxxx MEM_RD=8404
# 455000: MC STATE change 5 -> 0
# [CTRL] 455000 opcode=0000 regwrite=0 regdest=0 alusrca=0 alusrcb=01 aluop=zz pwrite=0 iwrite=1
# 455000: PC=0008 IR=0066
# 455000: ADR=0008 MDR=8404 MEM_RD=8404
# 465000: MC STATE change 0 -> 8
# 465000: PC update (pwrite=1) old=0007 new=0008
# [CTRL] 465000 opcode=1000 regwrite=0 regdest=0 alusrca=0 alusrcb=00 aluop=zz pwrite=1 iwrite=0
# 465000: PC=0008 IR=8404
# 465000: ADR=0008 MDR=8404 MEM_RD=8404
# 475000: MC STATE change 8 -> 1
# [CTRL] 475000 opcode=1000 regwrite=0 regdest=0 alusrca=0 alusrcb=00 aluop=zz pwrite=0 iwrite=0
# 475000: PC=0009 IR=8404
# 475000: ADR=0009 MDR=8404 MEM_RD=c000
# 485000: MC STATE change 1 -> 2
# [CTRL] 485000 opcode=1000 regwrite=0 regdest=0 alusrca=1 alusrcb=00 aluop=zz pwrite=0 iwrite=0
# 485000: PC=0009 IR=8404
# 485000: ADR=0009 MDR=c000 MEM_RD=c000
# 495000: WB regwrite=1 regdest=1 instr[11:9]=2 result=xxxx
# 495000: MC STATE change 2 -> 5
# [CTRL] 495000 opcode=1000 regwrite=1 regdest=1 alusrca=0 alusrcb=00 aluop=zz pwrite=0 iwrite=0
# 495000: PC=0009 IR=8404
# 495000: ADR=0009 MDR=c000 MEM_RD=c000
# 505000: MC STATE change 5 -> 0
# [CTRL] 505000 opcode=1000 regwrite=0 regdest=0 alusrca=0 alusrcb=01 aluop=zz pwrite=0 iwrite=1
# 505000: PC=0009 IR=8404
# 505000: ADR=0009 MDR=c000 MEM_RD=c000
# 515000: MC STATE change 0 -> 8
# 515000: PC update (pwrite=1) old=0008 new=0009
# [CTRL] 515000 opcode=1100 regwrite=0 regdest=0 alusrca=0 alusrcb=00 aluop=zz pwrite=1 iwrite=0
# 515000: PC=0009 IR=c000
# 515000: ADR=0009 MDR=c000 MEM_RD=c000
# 525000: MC STATE change 8 -> 1
# [CTRL] 525000 opcode=1100 regwrite=0 regdest=0 alusrca=0 alusrcb=00 aluop=zz pwrite=0 iwrite=0
# 525000: PC=000a IR=c000
# 525000: ADR=000a MDR=c000 MEM_RD=0067
# 535000: MC STATE change 1 -> 2
# [CTRL] 535000 opcode=1100 regwrite=0 regdest=0 alusrca=1 alusrcb=10 aluop=zz pwrite=0 iwrite=0
# 535000: PC=000a IR=c000
# 535000: ADR=000a MDR=0067 MEM_RD=0067
# 545000: WB regwrite=1 regdest=1 instr[11:9]=0 result=xxxx
# 545000: MC STATE change 2 -> 5
# [CTRL] 545000 opcode=1100 regwrite=1 regdest=1 alusrca=0 alusrcb=00 aluop=zz pwrite=0 iwrite=0
# 545000: PC=000a IR=c000
# 545000: ADR=000a MDR=0067 MEM_RD=0067
# 555000: MC STATE change 5 -> 0
# [CTRL] 555000 opcode=1100 regwrite=0 regdest=0 alusrca=0 alusrcb=01 aluop=zz pwrite=0 iwrite=1
# 555000: PC=000a IR=c000
# 555000: ADR=000a MDR=0067 MEM_RD=0067
# 565000: MC STATE change 0 -> 8
# 565000: PC update (pwrite=1) old=0009 new=000a
# [CTRL] 565000 opcode=0000 regwrite=0 regdest=0 alusrca=0 alusrcb=00 aluop=zz pwrite=1 iwrite=0
# 565000: PC=000a IR=0067
# 565000: ADR=000a MDR=0067 MEM_RD=0067
# 575000: MC STATE change 8 -> 1
# [CTRL] 575000 opcode=0000 regwrite=0 regdest=0 alusrca=0 alusrcb=00 aluop=zz pwrite=0 iwrite=0
# 575000: PC=000b IR=0067
# 575000: ADR=000b MDR=0067 MEM_RD=8404
# 585000: MC STATE change 1 -> 2
# [CTRL] 585000 opcode=0000 regwrite=0 regdest=0 alusrca=1 alusrcb=10 aluop=zz pwrite=0 iwrite=0
# 585000: PC=000b IR=0067
# 585000: ADR=000b MDR=8404 MEM_RD=8404
# 595000: MC STATE change 2 -> 3
# [CTRL] 595000 opcode=0000 regwrite=0 regdest=0 alusrca=0 alusrcb=00 aluop=zz pwrite=0 iwrite=0
# 595000: PC=000b IR=0067
# 595000: ADR=xxxx MDR=8404 MEM_RD=xxxx
# 605000: WB regwrite=1 regdest=1 instr[11:9]=0 result=xxxx
# 605000: MC STATE change 3 -> 5
# [CTRL] 605000 opcode=0000 regwrite=1 regdest=1 alusrca=0 alusrcb=00 aluop=zz pwrite=0 iwrite=0
# 605000: PC=000b IR=0067
# 605000: ADR=000b MDR=xxxx MEM_RD=8404
# 615000: MC STATE change 5 -> 0
# [CTRL] 615000 opcode=0000 regwrite=0 regdest=0 alusrca=0 alusrcb=01 aluop=zz pwrite=0 iwrite=1
# 615000: PC=000b IR=0067
# 615000: ADR=000b MDR=8404 MEM_RD=8404
# 625000: MC STATE change 0 -> 8
# 625000: PC update (pwrite=1) old=000a new=000b
# [CTRL] 625000 opcode=1000 regwrite=0 regdest=0 alusrca=0 alusrcb=00 aluop=zz pwrite=1 iwrite=0
# 625000: PC=000b IR=8404
# 625000: ADR=000b MDR=8404 MEM_RD=8404
# 635000: MC STATE change 8 -> 1
# [CTRL] 635000 opcode=1000 regwrite=0 regdest=0 alusrca=0 alusrcb=00 aluop=zz pwrite=0 iwrite=0
# 635000: PC=000c IR=8404
# 635000: ADR=000c MDR=8404 MEM_RD=c000
# 645000: MC STATE change 1 -> 2
# [CTRL] 645000 opcode=1000 regwrite=0 regdest=0 alusrca=1 alusrcb=00 aluop=zz pwrite=0 iwrite=0
# 645000: PC=000c IR=8404
# 645000: ADR=000c MDR=c000 MEM_RD=c000
# 655000: WB regwrite=1 regdest=1 instr[11:9]=2 result=xxxx
# 655000: MC STATE change 2 -> 5
# [CTRL] 655000 opcode=1000 regwrite=1 regdest=1 alusrca=0 alusrcb=00 aluop=zz pwrite=0 iwrite=0
# 655000: PC=000c IR=8404
# 655000: ADR=000c MDR=c000 MEM_RD=c000
# 665000: MC STATE change 5 -> 0
# [CTRL] 665000 opcode=1000 regwrite=0 regdest=0 alusrca=0 alusrcb=01 aluop=zz pwrite=0 iwrite=1
# 665000: PC=000c IR=8404
# 665000: ADR=000c MDR=c000 MEM_RD=c000
# 675000: MC STATE change 0 -> 8
# 675000: PC update (pwrite=1) old=000b new=000c
# [CTRL] 675000 opcode=1100 regwrite=0 regdest=0 alusrca=0 alusrcb=00 aluop=zz pwrite=1 iwrite=0
# 675000: PC=000c IR=c000
# 675000: ADR=000c MDR=c000 MEM_RD=c000
# 685000: MC STATE change 8 -> 1
# [CTRL] 685000 opcode=1100 regwrite=0 regdest=0 alusrca=0 alusrcb=00 aluop=zz pwrite=0 iwrite=0
# 685000: PC=000d IR=c000
# 685000: ADR=000d MDR=c000 MEM_RD=0068
# 695000: MC STATE change 1 -> 2
# [CTRL] 695000 opcode=1100 regwrite=0 regdest=0 alusrca=1 alusrcb=10 aluop=zz pwrite=0 iwrite=0
# 695000: PC=000d IR=c000
# 695000: ADR=000d MDR=0068 MEM_RD=0068
# 705000: WB regwrite=1 regdest=1 instr[11:9]=0 result=xxxx
# 705000: MC STATE change 2 -> 5
# [CTRL] 705000 opcode=1100 regwrite=1 regdest=1 alusrca=0 alusrcb=00 aluop=zz pwrite=0 iwrite=0
# 705000: PC=000d IR=c000
# 705000: ADR=000d MDR=0068 MEM_RD=0068
# 715000: MC STATE change 5 -> 0
# [CTRL] 715000 opcode=1100 regwrite=0 regdest=0 alusrca=0 alusrcb=01 aluop=zz pwrite=0 iwrite=1
# 715000: PC=000d IR=c000
# 715000: ADR=000d MDR=0068 MEM_RD=0068
# 725000: MC STATE change 0 -> 8
# 725000: PC update (pwrite=1) old=000c new=000d
# [CTRL] 725000 opcode=0000 regwrite=0 regdest=0 alusrca=0 alusrcb=00 aluop=zz pwrite=1 iwrite=0
# 725000: PC=000d IR=0068
# 725000: ADR=000d MDR=0068 MEM_RD=0068
# 735000: MC STATE change 8 -> 1
# [CTRL] 735000 opcode=0000 regwrite=0 regdest=0 alusrca=0 alusrcb=00 aluop=zz pwrite=0 iwrite=0
# 735000: PC=000e IR=0068
# 735000: ADR=000e MDR=0068 MEM_RD=8404
# 745000: MC STATE change 1 -> 2
# [CTRL] 745000 opcode=0000 regwrite=0 regdest=0 alusrca=1 alusrcb=10 aluop=zz pwrite=0 iwrite=0
# 745000: PC=000e IR=0068
# 745000: ADR=000e MDR=8404 MEM_RD=8404
# 755000: MC STATE change 2 -> 3
# [CTRL] 755000 opcode=0000 regwrite=0 regdest=0 alusrca=0 alusrcb=00 aluop=zz pwrite=0 iwrite=0
# 755000: PC=000e IR=0068
# 755000: ADR=xxxx MDR=8404 MEM_RD=xxxx
# 765000: WB regwrite=1 regdest=1 instr[11:9]=0 result=xxxx
# 765000: MC STATE change 3 -> 5
# [CTRL] 765000 opcode=0000 regwrite=1 regdest=1 alusrca=0 alusrcb=00 aluop=zz pwrite=0 iwrite=0
# 765000: PC=000e IR=0068
# 765000: ADR=000e MDR=xxxx MEM_RD=8404
# 775000: MC STATE change 5 -> 0
# [CTRL] 775000 opcode=0000 regwrite=0 regdest=0 alusrca=0 alusrcb=01 aluop=zz pwrite=0 iwrite=1
# 775000: PC=000e IR=0068
# 775000: ADR=000e MDR=8404 MEM_RD=8404
# 785000: MC STATE change 0 -> 8
# 785000: PC update (pwrite=1) old=000d new=000e
# [CTRL] 785000 opcode=1000 regwrite=0 regdest=0 alusrca=0 alusrcb=00 aluop=zz pwrite=1 iwrite=0
# 785000: PC=000e IR=8404
# 785000: ADR=000e MDR=8404 MEM_RD=8404
# 795000: MC STATE change 8 -> 1
# [CTRL] 795000 opcode=1000 regwrite=0 regdest=0 alusrca=0 alusrcb=00 aluop=zz pwrite=0 iwrite=0
# 795000: PC=000f IR=8404
# 795000: ADR=000f MDR=8404 MEM_RD=c000
# 805000: MC STATE change 1 -> 2
# [CTRL] 805000 opcode=1000 regwrite=0 regdest=0 alusrca=1 alusrcb=00 aluop=zz pwrite=0 iwrite=0
# 805000: PC=000f IR=8404
# 805000: ADR=000f MDR=c000 MEM_RD=c000
# 815000: WB regwrite=1 regdest=1 instr[11:9]=2 result=xxxx
# 815000: MC STATE change 2 -> 5
# [CTRL] 815000 opcode=1000 regwrite=1 regdest=1 alusrca=0 alusrcb=00 aluop=zz pwrite=0 iwrite=0
# 815000: PC=000f IR=8404
# 815000: ADR=000f MDR=c000 MEM_RD=c000
# 825000: MC STATE change 5 -> 0
# [CTRL] 825000 opcode=1000 regwrite=0 regdest=0 alusrca=0 alusrcb=01 aluop=zz pwrite=0 iwrite=1
# 825000: PC=000f IR=8404
# 825000: ADR=000f MDR=c000 MEM_RD=c000
# 835000: MC STATE change 0 -> 8
# 835000: PC update (pwrite=1) old=000e new=000f
# [CTRL] 835000 opcode=1100 regwrite=0 regdest=0 alusrca=0 alusrcb=00 aluop=zz pwrite=1 iwrite=0
# 835000: PC=000f IR=c000
# 835000: ADR=000f MDR=c000 MEM_RD=c000
# 845000: MC STATE change 8 -> 1
# [CTRL] 845000 opcode=1100 regwrite=0 regdest=0 alusrca=0 alusrcb=00 aluop=zz pwrite=0 iwrite=0
# 845000: PC=0010 IR=c000
# 845000: ADR=0010 MDR=c000 MEM_RD=0069
# 855000: MC STATE change 1 -> 2
# [CTRL] 855000 opcode=1100 regwrite=0 regdest=0 alusrca=1 alusrcb=10 aluop=zz pwrite=0 iwrite=0
# 855000: PC=0010 IR=c000
# 855000: ADR=0010 MDR=0069 MEM_RD=0069
# 865000: WB regwrite=1 regdest=1 instr[11:9]=0 result=xxxx
# 865000: MC STATE change 2 -> 5
# [CTRL] 865000 opcode=1100 regwrite=1 regdest=1 alusrca=0 alusrcb=00 aluop=zz pwrite=0 iwrite=0
# 865000: PC=0010 IR=c000
# 865000: ADR=0010 MDR=0069 MEM_RD=0069
# 875000: MC STATE change 5 -> 0
# [CTRL] 875000 opcode=1100 regwrite=0 regdest=0 alusrca=0 alusrcb=01 aluop=zz pwrite=0 iwrite=1
# 875000: PC=0010 IR=c000
# 875000: ADR=0010 MDR=0069 MEM_RD=0069
# 885000: MC STATE change 0 -> 8
# 885000: PC update (pwrite=1) old=000f new=0010
# [CTRL] 885000 opcode=0000 regwrite=0 regdest=0 alusrca=0 alusrcb=00 aluop=zz pwrite=1 iwrite=0
# 885000: PC=0010 IR=0069
# 885000: ADR=0010 MDR=0069 MEM_RD=0069
# 895000: MC STATE change 8 -> 1
# [CTRL] 895000 opcode=0000 regwrite=0 regdest=0 alusrca=0 alusrcb=00 aluop=zz pwrite=0 iwrite=0
# 895000: PC=0011 IR=0069
# 895000: ADR=0011 MDR=0069 MEM_RD=8404
# 905000: MC STATE change 1 -> 2
# [CTRL] 905000 opcode=0000 regwrite=0 regdest=0 alusrca=1 alusrcb=10 aluop=zz pwrite=0 iwrite=0
# 905000: PC=0011 IR=0069
# 905000: ADR=0011 MDR=8404 MEM_RD=8404
# 915000: MC STATE change 2 -> 3
# [CTRL] 915000 opcode=0000 regwrite=0 regdest=0 alusrca=0 alusrcb=00 aluop=zz pwrite=0 iwrite=0
# 915000: PC=0011 IR=0069
# 915000: ADR=xxxx MDR=8404 MEM_RD=xxxx
# 925000: WB regwrite=1 regdest=1 instr[11:9]=0 result=xxxx
# 925000: MC STATE change 3 -> 5
# [CTRL] 925000 opcode=0000 regwrite=1 regdest=1 alusrca=0 alusrcb=00 aluop=zz pwrite=0 iwrite=0
# 925000: PC=0011 IR=0069
# 925000: ADR=0011 MDR=xxxx MEM_RD=8404
# 935000: MC STATE change 5 -> 0
# [CTRL] 935000 opcode=0000 regwrite=0 regdest=0 alusrca=0 alusrcb=01 aluop=zz pwrite=0 iwrite=1
# 935000: PC=0011 IR=0069
# 935000: ADR=0011 MDR=8404 MEM_RD=8404
# 945000: MC STATE change 0 -> 8
# 945000: PC update (pwrite=1) old=0010 new=0011
# [CTRL] 945000 opcode=1000 regwrite=0 regdest=0 alusrca=0 alusrcb=00 aluop=zz pwrite=1 iwrite=0
# 945000: PC=0011 IR=8404
# 945000: ADR=0011 MDR=8404 MEM_RD=8404
# 955000: MC STATE change 8 -> 1
# [CTRL] 955000 opcode=1000 regwrite=0 regdest=0 alusrca=0 alusrcb=00 aluop=zz pwrite=0 iwrite=0
# 955000: PC=0012 IR=8404
# 955000: ADR=0012 MDR=8404 MEM_RD=c000
# 965000: MC STATE change 1 -> 2
# [CTRL] 965000 opcode=1000 regwrite=0 regdest=0 alusrca=1 alusrcb=00 aluop=zz pwrite=0 iwrite=0
# 965000: PC=0012 IR=8404
# 965000: ADR=0012 MDR=c000 MEM_RD=c000
# 975000: WB regwrite=1 regdest=1 instr[11:9]=2 result=xxxx
# 975000: MC STATE change 2 -> 5
# [CTRL] 975000 opcode=1000 regwrite=1 regdest=1 alusrca=0 alusrcb=00 aluop=zz pwrite=0 iwrite=0
